^C:\USERS\DANIELS\SOURCE\REPOS\PEOPLETRACKER\PEOPLETRACKER\STDAFX.CPP
C:\USERS\DANIELS\SOURCE\REPOS\PEOPLETRACKER\PEOPLETRACKER\X64\DEBUG\PEOPLETRACKER.PCH
C:\USERS\DANIELS\SOURCE\REPOS\PEOPLETRACKER\PEOPLETRACKER\X64\DEBUG\VC141.PDB
C:\USERS\DANIELS\SOURCE\REPOS\PEOPLETRACKER\PEOPLETRACKER\X64\DEBUG\VC141.IDB
C:\USERS\DANIELS\SOURCE\REPOS\PEOPLETRACKER\PEOPLETRACKER\X64\DEBUG\STDAFX.OBJ
^C:\USERS\DANIELS\SOURCE\REPOS\PEOPLETRACKER\PEOPLETRACKER\MAIN.CPP|C:\USERS\DANIELS\SOURCE\REPOS\PEOPLETRACKER\PEOPLETRACKER\PERSON.CPP
C:\USERS\DANIELS\SOURCE\REPOS\PEOPLETRACKER\PEOPLETRACKER\X64\DEBUG\VC141.PDB
C:\USERS\DANIELS\SOURCE\REPOS\PEOPLETRACKER\PEOPLETRACKER\X64\DEBUG\VC141.IDB
C:\USERS\DANIELS\SOURCE\REPOS\PEOPLETRACKER\PEOPLETRACKER\X64\DEBUG\PERSON.OBJ
C:\USERS\DANIELS\SOURCE\REPOS\PEOPLETRACKER\PEOPLETRACKER\X64\DEBUG\MAIN.OBJ
^C:\USERS\DANIELS\SOURCE\REPOS\PEOPLETRACKER\PEOPLETRACKER\MAIN.CPP
C:\USERS\DANIELS\SOURCE\REPOS\PEOPLETRACKER\PEOPLETRACKER\X64\DEBUG\VC141.PDB
C:\USERS\DANIELS\SOURCE\REPOS\PEOPLETRACKER\PEOPLETRACKER\X64\DEBUG\VC141.IDB
C:\USERS\DANIELS\SOURCE\REPOS\PEOPLETRACKER\PEOPLETRACKER\X64\DEBUG\MAIN.OBJ
^C:\USERS\DANIELS\SOURCE\REPOS\PEOPLETRACKER\PEOPLETRACKER\PERSON.CPP
C:\USERS\DANIELS\SOURCE\REPOS\PEOPLETRACKER\PEOPLETRACKER\X64\DEBUG\VC141.PDB
